410535
130405
118288
86875
80821
80446
71587
65472
64408
63700
59152
58114
58114
56395
56053
52660
49453
48000
47672
46363
46363
45064
42174
41539
41323
41222
39961
37468
37159
35321
34713
33807
33807
33807
33506
32012
31420
31124
31124
30830
30830
30830
30243
29950
29702
28211
27923
26498
26498
25371
25371
25091
24812
24257
23704
23429
23155
22882
22642
22337
22067
21527
20725
20725
20014
19667
19667
19667
19667
18882
18364
18364
18106
17338
17084
17084
17084
17084
17084
16328
15828
15828
15580
15580
15580
15580
14841
14841
14353
14353
14111
14111
14111
13870
13870
13870
13694
13391
13391
13391
12916
12680
12680
12445
11979
11979
11517
11288
11288
10833
10608
10384
10160
10160
9958
9938
9938
9938
9938
9938
9718
9718
9498
9498
9498
9280
9280
8633
8209
8209
7999
7790
7790
7582
7582
7376
7172
6779
6767
6567
6368
6171
6053
5975
5975
5782
5782
5782
5782
5782
5782
5782
5782
5782
5589
5589
5399
5399
5255
